# Blender v2.83.4 OBJ File: 'controller.blend'
# www.blender.org
mtllib controller.mtl
o Plane
v -0.013889 0.000000 -0.020787
v -0.009567 0.000000 -0.023097
v -0.004877 0.000000 -0.024520
v -0.000000 0.000000 -0.025000
v -0.017678 0.000000 -0.017678
v -0.020787 0.000000 -0.013890
v -0.023097 0.000000 -0.009567
v -0.024520 0.000000 -0.004878
v -0.025000 0.000000 -0.000000
v -0.024520 0.000000 0.004877
v -0.023097 0.000000 0.009567
v -0.020787 0.000000 0.013889
v -0.017678 0.000000 0.017677
v -0.013889 0.000000 0.020787
v -0.009567 0.000000 0.023097
v -0.004877 0.000000 0.024519
v -0.000000 0.000000 0.025000
v 0.004877 0.000000 0.024519
v 0.009567 0.000000 0.023097
v 0.013889 0.000000 0.020787
v 0.017678 0.000000 0.017677
v 0.020787 0.000000 0.013889
v 0.023097 0.000000 0.009567
v 0.024520 0.000000 0.004877
v 0.025000 0.000000 -0.000000
v 0.024519 0.000000 -0.004878
v 0.023097 0.000000 -0.009567
v 0.020787 0.000000 -0.013890
v 0.017678 0.000000 -0.017678
v 0.013889 0.000000 -0.020787
v 0.009567 0.000000 -0.023097
v 0.004877 0.000000 -0.024520
v -0.013507 0.071381 -0.020215
v -0.009304 0.071381 -0.022461
v -0.004743 0.071381 -0.023845
v -0.000000 0.071381 -0.024312
v -0.017191 0.071381 -0.017191
v -0.020214 0.071381 -0.013507
v -0.022461 0.071381 -0.009304
v -0.023845 0.071381 -0.004743
v -0.024312 0.071381 -0.000000
v -0.023845 0.071381 0.004743
v -0.022461 0.071381 0.009303
v -0.020214 0.071381 0.013506
v -0.017191 0.071381 0.017191
v -0.013507 0.071381 0.020214
v -0.009304 0.071381 0.022461
v -0.004743 0.071381 0.023844
v -0.000000 0.071381 0.024311
v 0.004743 0.071381 0.023844
v 0.009304 0.071381 0.022461
v 0.013507 0.071381 0.020214
v 0.017191 0.071381 0.017191
v 0.020214 0.071381 0.013506
v 0.022461 0.071381 0.009303
v 0.023844 0.071381 0.004743
v 0.024311 0.071381 -0.000000
v 0.023844 0.071381 -0.004743
v 0.022461 0.071381 -0.009304
v 0.020214 0.071381 -0.013507
v 0.017191 0.071381 -0.017191
v 0.013507 0.071381 -0.020215
v 0.009304 0.071381 -0.022461
v 0.004743 0.071381 -0.023845
v 0.010683 0.106114 0.025790
v 0.005446 0.106114 0.027379
v 0.000000 0.106114 0.027915
v 0.015509 0.106114 0.023211
v 0.019739 0.106114 0.019739
v 0.023211 0.106114 0.015509
v 0.025791 0.106114 0.010683
v 0.027379 0.106114 0.005446
v 0.027916 0.106114 -0.000000
v 0.027379 0.106114 -0.005446
v 0.025791 0.106114 -0.010683
v 0.023211 0.106114 -0.015509
v 0.019739 0.106114 -0.019740
v 0.015509 0.106114 -0.023211
v 0.010683 0.106114 -0.025791
v 0.005446 0.106114 -0.027379
v 0.000000 0.106114 -0.027916
v -0.005446 0.106114 -0.027379
v -0.010683 0.106114 -0.025791
v -0.015509 0.106114 -0.023211
v -0.019739 0.106114 -0.019740
v -0.023211 0.106114 -0.015509
v -0.025790 0.106114 -0.010683
v 0.000000 0.050283 -0.000000
v -0.027379 0.106114 -0.005446
v -0.027915 0.106114 -0.000000
v -0.027379 0.106114 0.005446
v -0.025790 0.106114 0.010683
v -0.023211 0.106114 0.015509
v -0.019739 0.106114 0.019739
v -0.015509 0.106114 0.023211
v -0.010683 0.106114 0.025790
v -0.005446 0.106114 0.027379
vt 0.000000 0.000000
vt 0.000000 0.000000
vt 0.000000 0.000000
vt 0.000000 0.000000
vt 0.000000 0.000000
vt 0.000000 0.000000
vt 0.000000 0.000000
vt 0.000000 0.000000
vt 0.000000 0.000000
vt 0.000000 0.000000
vt 0.000000 0.000000
vt 0.000000 0.000000
vt 0.000000 0.000000
vt 0.000000 0.000000
vt 0.000000 0.000000
vt 0.000000 0.000000
vt 0.000000 0.000000
vt 0.000000 0.000000
vt 0.000000 0.000000
vt 0.000000 0.000000
vt 0.000000 0.000000
vt 0.000000 0.000000
vt 0.000000 0.000000
vt 0.000000 0.000000
vt 0.000000 0.000000
vt 0.000000 0.000000
vt 0.000000 0.000000
vt 0.000000 0.000000
vt 0.000000 0.000000
vt 0.000000 0.000000
vt 0.000000 0.000000
vt 0.000000 0.000000
vt 0.000000 0.000000
vt 0.000000 0.000000
vt 0.000000 0.000000
vt 0.000000 0.000000
vt 0.000000 0.000000
vt 0.000000 0.000000
vt 0.000000 0.000000
vt 0.000000 0.000000
vt 0.000000 0.000000
vt 0.000000 0.000000
vt 0.000000 0.000000
vt 0.000000 0.000000
vt 0.000000 0.000000
vt 0.000000 0.000000
vt 0.000000 0.000000
vt 0.000000 0.000000
vt 0.000000 0.000000
vt 0.000000 0.000000
vt 0.000000 0.000000
vt 0.000000 0.000000
vt 0.000000 0.000000
vt 0.000000 0.000000
vt 0.000000 0.000000
vt 0.000000 0.000000
vt 0.000000 0.000000
vt 0.000000 0.000000
vt 0.000000 0.000000
vt 0.000000 0.000000
vt 0.000000 0.000000
vt 0.000000 0.000000
vt 0.000000 0.000000
vt 0.000000 0.000000
vt 0.250000 0.490000
vt 0.250000 0.250000
vt 0.296822 0.485388
vt 0.341844 0.471731
vt 0.383337 0.449553
vt 0.419706 0.419706
vt 0.449553 0.383337
vt 0.471731 0.341844
vt 0.485388 0.296822
vt 0.490000 0.250000
vt 0.485388 0.203178
vt 0.471731 0.158156
vt 0.449553 0.116663
vt 0.419706 0.080294
vt 0.383337 0.050447
vt 0.341844 0.028269
vt 0.296822 0.014612
vt 0.250000 0.010000
vt 0.203178 0.014612
vt 0.158156 0.028269
vt 0.116663 0.050447
vt 0.080294 0.080294
vt 0.050447 0.116663
vt 0.028269 0.158156
vt 0.014612 0.203179
vt 0.010000 0.250000
vt 0.014612 0.296822
vt 0.028269 0.341844
vt 0.050447 0.383337
vt 0.080295 0.419706
vt 0.116663 0.449553
vt 0.158156 0.471731
vt 0.990000 0.250000
vt 0.750000 0.010000
vt 0.510000 0.250000
vt 0.203179 0.485389
vt 0.750000 0.490000
vt 0.796822 0.485388
vt 0.841844 0.471731
vt 0.883337 0.449553
vt 0.919706 0.419706
vt 0.949553 0.383337
vt 0.971731 0.341844
vt 0.985388 0.296822
vt 0.985388 0.203178
vt 0.971731 0.158156
vt 0.949553 0.116663
vt 0.919706 0.080294
vt 0.883337 0.050447
vt 0.841844 0.028269
vt 0.796822 0.014612
vt 0.703178 0.014612
vt 0.658156 0.028269
vt 0.616663 0.050447
vt 0.580294 0.080294
vt 0.550447 0.116663
vt 0.528269 0.158156
vt 0.514611 0.203179
vt 0.514612 0.296822
vt 0.528269 0.341844
vt 0.550447 0.383337
vt 0.580295 0.419706
vt 0.616663 0.449553
vt 0.658156 0.471731
vt 0.703179 0.485389
vn 0.0000 -1.0000 0.0000
vn 0.0000 1.0000 0.0000
vn 0.9951 0.0096 -0.0980
vn -0.7730 0.0096 0.6343
vn 0.9569 0.0096 -0.2903
vn -0.6344 0.0096 0.7730
vn 0.8819 0.0096 -0.4714
vn -0.4714 0.0096 0.8819
vn -0.6343 0.0096 -0.7730
vn 0.7730 0.0096 -0.6343
vn -0.2903 0.0096 0.9569
vn -0.4714 0.0096 -0.8819
vn 0.6343 0.0096 -0.7730
vn -0.0980 0.0096 0.9951
vn -0.2903 0.0096 -0.9569
vn 0.4714 0.0096 -0.8819
vn 0.0980 0.0096 0.9951
vn -0.0980 0.0096 -0.9951
vn 0.2903 0.0096 -0.9569
vn 0.2903 0.0096 0.9569
vn -0.7730 0.0096 -0.6343
vn 0.0980 0.0096 -0.9951
vn 0.4714 0.0096 0.8819
vn -0.8819 0.0096 -0.4714
vn 0.6344 0.0096 0.7730
vn -0.9569 0.0096 -0.2903
vn 0.7730 0.0096 0.6344
vn -0.9951 0.0096 -0.0980
vn 0.8819 0.0096 0.4714
vn -0.9951 0.0096 0.0980
vn 0.9569 0.0096 0.2903
vn -0.9569 0.0096 0.2903
vn 0.9951 0.0096 0.0980
vn -0.8819 0.0096 0.4714
vn 0.0878 -0.4455 0.8910
vn 0.2599 -0.4455 0.8567
vn 0.4220 -0.4455 0.7896
vn 0.5679 -0.4455 0.6921
vn 0.6921 -0.4455 0.5679
vn 0.7896 -0.4455 0.4220
vn 0.8567 -0.4455 0.2599
vn 0.8910 -0.4455 0.0878
vn 0.8910 -0.4455 -0.0878
vn 0.8567 -0.4455 -0.2599
vn 0.7896 -0.4455 -0.4220
vn 0.6921 -0.4455 -0.5679
vn 0.5680 -0.4455 -0.6921
vn 0.4220 -0.4455 -0.7896
vn 0.2599 -0.4455 -0.8567
vn 0.0877 -0.4455 -0.8910
vn -0.0877 -0.4455 -0.8910
vn -0.2599 -0.4455 -0.8567
vn -0.4220 -0.4455 -0.7896
vn -0.5680 -0.4455 -0.6921
vn -0.6921 -0.4455 -0.5680
vn -0.7896 -0.4455 -0.4220
vn -0.8567 -0.4455 -0.2599
vn -0.8910 -0.4455 -0.0877
vn -0.8910 -0.4455 0.0877
vn -0.8567 -0.4455 0.2599
vn -0.7896 -0.4455 0.4220
vn -0.6921 -0.4455 0.5680
vn -0.5679 -0.4455 0.6921
vn -0.4220 -0.4455 0.7896
vn -0.2599 -0.4455 0.8567
vn -0.0878 -0.4455 0.8910
usemtl None
s off
f 22/1/1 14/2/1 6/3/1
f 44/4/2 52/5/2 60/6/2
f 26/7/3 57/8/3 25/9/3
f 12/10/4 45/11/4 44/4/4
f 27/12/5 58/13/5 26/7/5
f 14/2/6 45/11/6 13/14/6
f 28/15/7 59/16/7 27/12/7
f 15/17/8 46/18/8 14/2/8
f 1/19/9 37/20/9 33/21/9
f 29/22/10 60/6/10 28/15/10
f 16/23/11 47/24/11 15/17/11
f 1/19/12 34/25/12 2/26/12
f 30/27/13 61/28/13 29/22/13
f 16/23/14 49/29/14 48/30/14
f 3/31/15 34/25/15 35/32/15
f 31/33/16 62/34/16 30/27/16
f 18/35/17 49/29/17 17/36/17
f 3/31/18 36/37/18 4/38/18
f 32/39/19 63/40/19 31/33/19
f 19/41/20 50/42/20 18/35/20
f 6/3/21 37/20/21 5/43/21
f 4/38/22 64/44/22 32/39/22
f 20/45/23 51/46/23 19/41/23
f 7/47/24 38/48/24 6/3/24
f 21/49/25 52/5/25 20/45/25
f 8/50/26 39/51/26 7/47/26
f 22/1/27 53/52/27 21/49/27
f 9/53/28 40/54/28 8/50/28
f 23/55/29 54/56/29 22/1/29
f 10/57/30 41/58/30 9/53/30
f 24/59/31 55/60/31 23/55/31
f 11/61/32 42/62/32 10/57/32
f 25/9/33 56/63/33 24/59/33
f 12/10/34 43/64/34 11/61/34
f 67/65/35 88/66/35 66/67/35
f 66/67/36 88/66/36 65/68/36
f 65/68/37 88/66/37 68/69/37
f 68/69/38 88/66/38 69/70/38
f 69/70/39 88/66/39 70/71/39
f 70/71/40 88/66/40 71/72/40
f 71/72/41 88/66/41 72/73/41
f 72/73/42 88/66/42 73/74/42
f 73/74/43 88/66/43 74/75/43
f 74/75/44 88/66/44 75/76/44
f 75/76/45 88/66/45 76/77/45
f 76/77/46 88/66/46 77/78/46
f 77/78/47 88/66/47 78/79/47
f 78/79/48 88/66/48 79/80/48
f 79/80/49 88/66/49 80/81/49
f 80/81/50 88/66/50 81/82/50
f 81/82/51 88/66/51 82/83/51
f 82/83/52 88/66/52 83/84/52
f 83/84/53 88/66/53 84/85/53
f 84/85/54 88/66/54 85/86/54
f 85/86/55 88/66/55 86/87/55
f 86/87/56 88/66/56 87/88/56
f 87/88/57 88/66/57 89/89/57
f 89/89/58 88/66/58 90/90/58
f 90/90/59 88/66/59 91/91/59
f 91/91/60 88/66/60 92/92/60
f 92/92/61 88/66/61 93/93/61
f 93/93/62 88/66/62 94/94/62
f 94/94/63 88/66/63 95/95/63
f 95/95/64 88/66/64 96/96/64
f 73/97/2 81/98/2 90/99/2
f 96/96/65 88/66/65 97/100/65
f 97/100/66 88/66/66 67/65/66
f 6/3/1 5/43/1 1/19/1
f 1/19/1 2/26/1 3/31/1
f 3/31/1 4/38/1 32/39/1
f 32/39/1 31/33/1 30/27/1
f 30/27/1 29/22/1 28/15/1
f 28/15/1 27/12/1 26/7/1
f 26/7/1 25/9/1 24/59/1
f 24/59/1 23/55/1 26/7/1
f 23/55/1 22/1/1 26/7/1
f 22/1/1 21/49/1 20/45/1
f 20/45/1 19/41/1 18/35/1
f 18/35/1 17/36/1 14/2/1
f 17/36/1 16/23/1 14/2/1
f 16/23/1 15/17/1 14/2/1
f 14/2/1 13/14/1 12/10/1
f 12/10/1 11/61/1 10/57/1
f 10/57/1 9/53/1 8/50/1
f 8/50/1 7/47/1 6/3/1
f 6/3/1 1/19/1 3/31/1
f 3/31/1 32/39/1 6/3/1
f 32/39/1 30/27/1 6/3/1
f 30/27/1 28/15/1 26/7/1
f 22/1/1 20/45/1 14/2/1
f 20/45/1 18/35/1 14/2/1
f 14/2/1 12/10/1 6/3/1
f 12/10/1 10/57/1 6/3/1
f 10/57/1 8/50/1 6/3/1
f 30/27/1 26/7/1 6/3/1
f 26/7/1 22/1/1 6/3/1
f 33/21/2 37/20/2 38/48/2
f 38/48/2 39/51/2 40/54/2
f 40/54/2 41/58/2 42/62/2
f 42/62/2 43/64/2 44/4/2
f 44/4/2 45/11/2 46/18/2
f 46/18/2 47/24/2 48/30/2
f 48/30/2 49/29/2 52/5/2
f 49/29/2 50/42/2 52/5/2
f 50/42/2 51/46/2 52/5/2
f 52/5/2 53/52/2 54/56/2
f 54/56/2 55/60/2 52/5/2
f 55/60/2 56/63/2 52/5/2
f 56/63/2 57/8/2 58/13/2
f 58/13/2 59/16/2 60/6/2
f 60/6/2 61/28/2 62/34/2
f 62/34/2 63/40/2 64/44/2
f 64/44/2 36/37/2 35/32/2
f 35/32/2 34/25/2 33/21/2
f 33/21/2 38/48/2 40/54/2
f 40/54/2 42/62/2 44/4/2
f 44/4/2 46/18/2 48/30/2
f 56/63/2 58/13/2 52/5/2
f 58/13/2 60/6/2 52/5/2
f 60/6/2 62/34/2 64/44/2
f 64/44/2 35/32/2 33/21/2
f 33/21/2 40/54/2 44/4/2
f 44/4/2 48/30/2 52/5/2
f 60/6/2 64/44/2 33/21/2
f 33/21/2 44/4/2 60/6/2
f 26/7/3 58/13/3 57/8/3
f 12/10/4 13/14/4 45/11/4
f 27/12/5 59/16/5 58/13/5
f 14/2/6 46/18/6 45/11/6
f 28/15/7 60/6/7 59/16/7
f 15/17/8 47/24/8 46/18/8
f 1/19/9 5/43/9 37/20/9
f 29/22/10 61/28/10 60/6/10
f 16/23/11 48/30/11 47/24/11
f 1/19/12 33/21/12 34/25/12
f 30/27/13 62/34/13 61/28/13
f 16/23/14 17/36/14 49/29/14
f 3/31/15 2/26/15 34/25/15
f 31/33/16 63/40/16 62/34/16
f 18/35/17 50/42/17 49/29/17
f 3/31/18 35/32/18 36/37/18
f 32/39/19 64/44/19 63/40/19
f 19/41/20 51/46/20 50/42/20
f 6/3/21 38/48/21 37/20/21
f 4/38/22 36/37/22 64/44/22
f 20/45/23 52/5/23 51/46/23
f 7/47/24 39/51/24 38/48/24
f 21/49/25 53/52/25 52/5/25
f 8/50/26 40/54/26 39/51/26
f 22/1/27 54/56/27 53/52/27
f 9/53/28 41/58/28 40/54/28
f 23/55/29 55/60/29 54/56/29
f 10/57/30 42/62/30 41/58/30
f 24/59/31 56/63/31 55/60/31
f 11/61/32 43/64/32 42/62/32
f 25/9/33 57/8/33 56/63/33
f 12/10/34 44/4/34 43/64/34
f 67/101/2 66/102/2 65/103/2
f 65/103/2 68/104/2 69/105/2
f 69/105/2 70/106/2 73/97/2
f 70/106/2 71/107/2 73/97/2
f 71/107/2 72/108/2 73/97/2
f 73/97/2 74/109/2 75/110/2
f 75/110/2 76/111/2 73/97/2
f 76/111/2 77/112/2 73/97/2
f 77/112/2 78/113/2 79/114/2
f 79/114/2 80/115/2 81/98/2
f 81/98/2 82/116/2 83/117/2
f 83/117/2 84/118/2 85/119/2
f 85/119/2 86/120/2 90/99/2
f 86/120/2 87/121/2 90/99/2
f 87/121/2 89/122/2 90/99/2
f 90/99/2 91/123/2 92/124/2
f 92/124/2 93/125/2 90/99/2
f 93/125/2 94/126/2 90/99/2
f 94/126/2 95/127/2 96/128/2
f 96/128/2 97/129/2 67/101/2
f 67/101/2 65/103/2 73/97/2
f 65/103/2 69/105/2 73/97/2
f 77/112/2 79/114/2 73/97/2
f 79/114/2 81/98/2 73/97/2
f 81/98/2 83/117/2 90/99/2
f 83/117/2 85/119/2 90/99/2
f 94/126/2 96/128/2 90/99/2
f 96/128/2 67/101/2 90/99/2
f 67/101/2 73/97/2 90/99/2
